Rafael dos Santos Peixoto - Data Analysis
…
library(tidyverse)

matches <- read_csv("data/br/campeonato-brasileiro-full.csv", show_col_types = FALSE) %>% 
    select(c(data, mandante, visitante, vencedor, mandante_placar, visitante_placar)) %>% 
    rename(date = data,
           home = mandante,
           away = visitante,
           winner = vencedor,
           home_score = mandante_placar,
           away_score = visitante_placar) %>% 
    filter(date > "2016-01-01")
    
matches

# A tibble: 2,279 × 6
   date       home          away         winner      home_score away_score
   <date>     <chr>         <chr>        <chr>            <dbl>      <dbl>
 1 2016-05-14 Palmeiras     Athletico-PR Palmeiras            4          0
 2 2016-05-14 Flamengo      Sport        Flamengo             1          0
 3 2016-05-14 Atletico-MG   Santos       Atletico-MG          1          0
 4 2016-05-14 Coritiba      Cruzeiro     Coritiba             1          0
 5 2016-05-15 Santa Cruz    Vitoria      Santa Cruz           4          1
 6 2016-05-15 Botafogo-RJ   Sao Paulo    Sao Paulo            0          1
 7 2016-05-15 Figueirense   Ponte Preta  -                    0          0
 8 2016-05-15 Corinthians   Gremio       -                    0          0
 9 2016-05-15 America-MG    Fluminense   Fluminense           0          1
10 2016-05-15 Internacional Chapecoense  -                    0          0
# … with 2,269 more rows
…
matches_transformed <- matches %>% select(date, home, away, winner) %>% 
    pivot_longer(cols = c(home, away), values_to = "team", names_to = "location") %>%
    mutate(points = case_when(winner == team ~ 3,
                              winner == "-" ~ 1,
                              TRUE ~ 0),
           victory = case_when(winner == team ~ 1,
                              TRUE ~ 0),
           draw = case_when(winner == "-" ~ 1,
                            TRUE ~ 0),
           year = format(date, "%Y"))

matches_transformed

# A tibble: 4,558 × 8
   date       winner      location team         points victory  draw year 
   <date>     <chr>       <chr>    <chr>         <dbl>   <dbl> <dbl> <chr>
 1 2016-05-14 Palmeiras   home     Palmeiras         3       1     0 2016 
 2 2016-05-14 Palmeiras   away     Athletico-PR      0       0     0 2016 
 3 2016-05-14 Flamengo    home     Flamengo          3       1     0 2016 
 4 2016-05-14 Flamengo    away     Sport             0       0     0 2016 
 5 2016-05-14 Atletico-MG home     Atletico-MG       3       1     0 2016 
 6 2016-05-14 Atletico-MG away     Santos            0       0     0 2016 
 7 2016-05-14 Coritiba    home     Coritiba          3       1     0 2016 
 8 2016-05-14 Coritiba    away     Cruzeiro          0       0     0 2016 
 9 2016-05-15 Santa Cruz  home     Santa Cruz        3       1     0 2016 
10 2016-05-15 Santa Cruz  away     Vitoria           0       0     0 2016 
# … with 4,548 more rows
…
